<svg width="36" height="35" viewBox="0 0 36 35" fill="none" xmlns="http://www.w3.org/2000/svg">
<g clip-path="url(#clip0_2918_251)">
<path d="M22.6533 7.875H13.8503C10.8608 7.875 8.42871 10.3035 8.42871 13.2883V22.0776C8.42871 25.0626 10.8608 27.4909 13.8503 27.4909H22.6533C25.643 27.4909 28.0751 25.0624 28.0751 22.0776V13.2883C28.0753 10.3035 25.643 7.875 22.6533 7.875ZM26.3321 22.0776C26.3321 24.1029 24.6819 25.7505 22.6534 25.7505H13.8503C11.822 25.7506 10.1718 24.1029 10.1718 22.0776V13.2883C10.1718 11.2631 11.822 9.61542 13.8503 9.61542H22.6533C24.6817 9.61542 26.332 11.2631 26.332 13.2883V22.0776H26.3321Z" fill="#303030"/>
<path d="M18.252 12.6287C15.4605 12.6287 13.1896 14.8961 13.1896 17.6832C13.1896 20.4702 15.4605 22.7375 18.252 22.7375C21.0434 22.7375 23.3143 20.4702 23.3143 17.6832C23.3143 14.8961 21.0434 12.6287 18.252 12.6287ZM18.252 20.997C16.4218 20.997 14.9327 19.5105 14.9327 17.6831C14.9327 15.8557 16.4217 14.369 18.252 14.369C20.0822 14.369 21.5712 15.8557 21.5712 17.6831C21.5712 19.5105 20.0821 20.997 18.252 20.997Z" fill="#303030"/>
<path d="M23.5267 11.153C23.1909 11.153 22.8609 11.2888 22.6238 11.5266C22.3854 11.7633 22.2484 12.0928 22.2484 12.4293C22.2484 12.7648 22.3855 13.0942 22.6238 13.332C22.8608 13.5687 23.1909 13.7056 23.5267 13.7056C23.8637 13.7056 24.1926 13.5687 24.4308 13.332C24.669 13.0942 24.805 12.7646 24.805 12.4293C24.805 12.0928 24.669 11.7633 24.4308 11.5266C24.1937 11.2888 23.8637 11.153 23.5267 11.153Z" fill="#303030"/>
</g>
<circle cx="18.0537" cy="17.5" r="16.5" stroke="#303030" stroke-width="2"/>
<defs>
<clipPath id="clip0_2918_251">
<rect width="19.6465" height="19.616" fill="white" transform="translate(8.42871 7.875)"/>
</clipPath>
</defs>
</svg>
