<svg width="35" height="35" viewBox="0 0 35 35" fill="none" xmlns="http://www.w3.org/2000/svg">
<circle cx="17.5" cy="17.5" r="16.5" stroke="#303030" stroke-width="2"/>
<g clip-path="url(#clip0_2918_244)">
<path d="M13.4447 13.859H10.2981C10.1584 13.859 10.0453 13.9722 10.0453 14.1118V24.2204C10.0453 24.36 10.1584 24.4732 10.2981 24.4732H13.4447C13.5843 24.4732 13.6975 24.36 13.6975 24.2204V14.1118C13.6975 13.9722 13.5843 13.859 13.4447 13.859Z" fill="#303030"/>
<path d="M11.8725 8.83417C10.7276 8.83417 9.79614 9.76459 9.79614 10.9082C9.79614 12.0524 10.7276 12.9832 11.8725 12.9832C13.0165 12.9832 13.9472 12.0523 13.9472 10.9082C13.9472 9.76459 13.0165 8.83417 11.8725 8.83417Z" fill="#303030"/>
<path d="M21.4482 13.6078C20.1844 13.6078 19.2502 14.1511 18.6835 14.7684V14.1118C18.6835 13.9722 18.5704 13.859 18.4307 13.859H15.4174C15.2777 13.859 15.1646 13.9722 15.1646 14.1118V24.2204C15.1646 24.3601 15.2777 24.4732 15.4174 24.4732H18.557C18.6967 24.4732 18.8098 24.3601 18.8098 24.2204V19.219C18.8098 17.5337 19.2676 16.8771 20.4425 16.8771C21.722 16.8771 21.8236 17.9296 21.8236 19.3057V24.2205C21.8236 24.3601 21.9368 24.4733 22.0764 24.4733H25.2173C25.3569 24.4733 25.4701 24.3601 25.4701 24.2205V18.6757C25.4701 16.1697 24.9922 13.6078 21.4482 13.6078Z" fill="#303030"/>
</g>
<defs>
<clipPath id="clip0_2918_244">
<rect width="15.6739" height="15.6739" fill="white" transform="translate(9.79614 8.81659)"/>
</clipPath>
</defs>
</svg>
